…
# list of reduced features
clusternames <- cluster_features$mz_rt

# select only the features are in the reduced list
imp_clust <- imp_meta_omics_wide[,c(names(imp_meta_omics_wide) %in% clusternames)]

# bind back sample names
imp_clust <- cbind(imp_meta_omics_wide[1], imp_clust)

tibble(imp_clust)
```

    ## # A tibble: 56 × 924
    ##    sample_ID `168.0777_0.606` `154.0621_0.609` `124.0072_0.616` `193.0351_0.617`
    ##    <chr>                <dbl>            <dbl>            <dbl>            <dbl>
    ##  1 6111_U4_…            6707.          304458.           63059.          110661.
    ##  2 6101_U2_…           81842.          112404.           22064.           50736.
    ##  3 6102_U1_…           29358.          168966.           56237.           54823.
    ##  4 6110_U2_…           19074.           67706.           22557.           27334.
    ##  5 6105_U4_…           59856.          208993.           56522.           51905.
    ##  6 6103_U4_…           90745.           92892.            4167.           81048.
    ##  7 6105_U1_…           36894.          248975.           63102.           70254.
    ##  8 6104_U1_…           29693.          322896            51042.           56236.
    ##  9 6113_U4_…          110885.          155423.           44750.           73910.
    ## 10 6105_U2_…           64532.          262397.           47441.           94744 
    ## # ℹ 46 more rows
    ## # ℹ 919 more variables: `239.1144_0.622` <dbl>, `195.051_0.627` <dbl>,
    ## #   `215.0326_0.629` <dbl>, `219.0457_0.629` <dbl>, `217.0486_0.63` <dbl>,
    ## #   `245.0433_0.63` <dbl>, `165.0405_0.634` <dbl>, `187.0383_0.634` <dbl>,
    ## #   `235.057_0.641` <dbl>, `135.0295_0.64` <dbl>, `277.0852_0.658` <dbl>,
    ## #   `179.0556_0.643` <dbl>, `149.0089_0.649` <dbl>, `547.1106_0.67` <dbl>,
    ## #   `149.0452_0.654` <dbl>, `262.0364_0.654` <dbl>, `321.0625_0.656` <dbl>, …
…
